"новости","деревья на Садовом кольце"
"новости","добрый автобус"
"новости","выставка IT-технологий"
"кухня","рецепт борща"
"кухня","яблочный пирог"
"кухня","тайская кухня"
"товары","Дети капитана Гранта"
"товары","зимние шины"
"товары","Тайская кухня"
